<?xml version="1.0" encoding="utf-8"?>
<!-- Generator: Adobe Illustrator 24.0.1, SVG Export Plug-In . SVG Version: 6.00 Build 0)  -->
<svg version="1.1" id="Layer_1" xmlns="http://www.w3.org/2000/svg" xmlns:xlink="http://www.w3.org/1999/xlink" x="0px" y="0px"
	 viewBox="0 0 665.1 117" style="enable-background:new 0 0 665.1 117;" xml:space="preserve">
<style type="text/css">
	.st0{fill:#FF0000;}
	.st1{fill:#FFFFFF;}
	.st2{fill:#D0D2D3;}
</style>
<g>
	<g>
		<g>
			<polygon points="248.5,25.9 236.5,0 195.8,0 220.8,51.8 			"/>
			<path d="M345.2,0h-72.9l-99.7,117h39.7l26-31.1l14.4,31.1h68.4l9.2-52.1l8.3,28.8l24.8-29.9L345.2,0z M289.4,107.7L265.1,56
				l42-48.6L289.4,107.7z"/>
			<polygon points="407.4,0 340.8,101.1 374.3,101.1 399.6,61.5 389.8,117 423.5,117 444.1,0 			"/>
		</g>
		<g>
			<path class="st0" d="M52.5,4.3c-0.5,5.1-1.3,11-0.8,16.4c0.8,7.7,5.6,11.7,11.9,14.1c1.9,0.7,4.7,1.8,7.2,1.3
				c1.2-0.3,2-1,2.7-1.5c2.1-1.4,4.8-2.6,7.9-3c4.7-0.6,9.2,0.6,12.8,1.6c3.4,0.9,7.8,2.3,10.6,4c1.6,0.9,2.7,2.3,3.5,3.8
				c1.5,2.5,2.1,6.7,5.4,7.4c0.8-3.4,0.2-7.1,0.3-10.8c0.1-3.4,0.8-6.9,1.4-10c0.9-4.4,2.2-9.2,3.5-13.5c0.2-0.7,0.8-4.1,2.1-3.6
				c0.6,0.2,0.4,1.6,0.4,2.4c-0.1,2.9-0.3,5-0.5,7.8c-0.6,7.1-0.6,14.9,0.6,20.9c0.7,3.3,1.5,6.4,1.2,10.1c-0.1,0.9-0.6,2.1-0.8,3.1
				c-0.1,0.9,0,1.6-0.2,2.3c-0.3,1-1.2,2.3-1.9,3.4c-0.2,0.3-0.6,0.9-1,1.7c-0.4,0.7-1,1-1,1.7c0.1,1.1,2.2,3.2,3.3,3.5
				c4.8,1.4,10.1,2.1,13,4.9c1.7,1.7,3.1,3.9,3.3,6.9c0.2,2.6-0.6,4.7-1.6,7c-0.7,1.6-1.3,5.4-2.5,6.1c-0.8,0.6-2.2,0.2-3.2,0.8
				c-0.3,1.4-0.9,2.4-1.1,4c-0.8,1.1-2,1.9-2.9,3c0.3,2.5-1.3,3.2-3.4,3.3c-6.3,5.1-18.7,1.7-24-1.7c-2.6,1.9-5.6,3.4-5.3,8.3
				c2.3,1.3,4,2.8,6.8,3.6c3.6,1.2,8,0.6,10.3,2.7c0.2,0.2,0.4,0.4,0.5,0.6h17.9l51-59.2L152.3,0.1H52.9C52.8,1.5,52.7,2.9,52.5,4.3
				z"/>
			<path class="st0" d="M5.8,116.1c3.2-3.4,7.9-5.7,12.4-7.7c3.5-1.6,7.2-2.9,10-5.1c1.2-1,2.2-2,3.6-2.3c2.8-0.4,5.6,0.8,7.7,1.3
				c5.8,1.2,10.3-1.7,13.2-4.7c1.5-1.5,3.3-3,4.2-5.1c1.1-2.6,0.6-6,0.6-9.3c0.1-6.7,2.5-11.4,2.6-17.6c0-3.2-0.7-6.3-0.3-9.5
				c-3.3-1.7-7.2-3.4-9.9-6.3c-2.6-2.9-5.6-8.3-4.7-13c-2-3-3.7-7.2-3.8-12c0-4.8,1.4-8.7,2.7-13.1c1.1-3.8,2.2-7.7,3.4-11.6H25.2
				L0,116.7h5.3C5.5,116.5,5.6,116.3,5.8,116.1z"/>
		</g>
	</g>
	<g>
		<path class="st0" d="M665.1,33.8h-92.6c-2.9,3.8-5,8.3-5.8,13c-0.8,4.8-0.3,9.2,1.2,13h92.6l-10.7-13L665.1,33.8z"/>
		<path class="st0" d="M545.4,59.9c-0.5-4.1-0.4-8.5,0.4-13c0.8-4.5,2.2-8.9,4.2-13h-28.3l-4.6,26.1L545.4,59.9L545.4,59.9z"/>
		<polygon class="st0" points="542.6,33.8 521.8,33.8 517.2,59.9 538,59.9 		"/>
		<path class="st0" d="M640,33.8h-22.5c1.6,3.8,2.1,8.3,1.2,13c-0.8,4.8-2.9,9.2-5.8,13h22.5c1.9-4.1,3.4-8.5,4.2-13
			C640.3,42.3,640.4,37.9,640,33.8z"/>
		<g>
			<path class="st1" d="M585.3,48.5l-0.9,5.1h-3.6l0.9-5.1l-3.5-8.6h4l1.7,5.6l3.7-5.6h4L585.3,48.5z"/>
			<path class="st1" d="M592.6,39.9h10.9l-0.5,2.9h-7.3l-0.4,2.4h6.7l-0.5,2.8h-6.7l-0.5,2.6h7.5l-0.5,3.1h-11.1L592.6,39.9z"/>
			<path class="st1" d="M609.5,39.9h3.6l2.7,13.7h-3.7l-0.4-2.4h-4.8l-1.3,2.4h-3.7L609.5,39.9z M608.2,48.5h3.1l-0.7-4.8h0
				L608.2,48.5z"/>
			<path class="st1" d="M619.3,39.9h7c2.4,0,4.6,1.1,4.1,3.9c-0.3,1.5-1.2,2.9-2.8,3.4l0,0c1.4,0.4,1.6,2,1.4,3.3
				c-0.1,0.6-0.3,2.6,0,3.1h-3.5c-0.2-0.5,0-1.8,0-2.2c0.2-1.4,0.2-2.8-1.5-2.8h-2.7l-0.9,5h-3.6L619.3,39.9z M621.8,45.9h3
				c1.1,0,1.8-0.6,1.9-1.6c0.2-1-0.5-1.5-1.5-1.5h-2.8L621.8,45.9z"/>
			<path class="st1" d="M634.3,49c-0.2,1.6,0.7,2.1,2.2,2.1c1.1,0,2.3-0.4,2.4-1.4c0.2-1.2-1.7-1.4-3.6-2c-1.8-0.6-3.8-1.4-3.3-3.9
				c0.5-3,3.7-4.2,6.3-4.2c2.7,0,5.3,1.3,4.7,4.4h-3.6c0.3-1.2-0.8-1.6-1.9-1.6c-0.8,0-1.8,0.3-1.9,1.2c-0.2,1.1,1.8,1.3,3.7,1.8
				c1.9,0.6,3.7,1.5,3.3,3.9c-0.6,3.5-3.8,4.6-6.8,4.6c-3.1,0-5.7-1.4-5.1-4.9L634.3,49L634.3,49z"/>
		</g>
		<g>
			<polygon points="511.4,92.4 532.3,92.4 538,59.9 517.2,59.9 			"/>
			<path d="M588.1,72.8c-9.6,0-17-5.2-20.2-13c-1.6-3.8-2.1-8.3-1.2-13c0.8-4.8,2.9-9.2,5.8-13c5.9-7.7,15.2-13,24.8-13
				c9.6,0,17,5.2,20.2,13H640C637.7,14.3,622.3,0,601,0c-21.3,0-41.8,14.3-50.9,33.8c-1.9,4.1-3.4,8.5-4.2,13
				c-0.8,4.5-0.9,8.9-0.4,13c2.2,19.5,17.7,33.8,39,33.8c21.3,0,41.8-14.3,50.9-33.8h-22.5C607,67.6,597.7,72.8,588.1,72.8z"/>
			<polygon points="525.7,11.7 521.8,33.8 542.6,33.8 548.3,1.3 537.9,1.3 			"/>
		</g>
		<g>
			<path d="M515.9,104h2.9l2.1,12.7h-2.8l-0.4-2.8H513l-1.6,2.8h-3L515.9,104z M514.1,111.8h3.4l-0.6-5.1h0L514.1,111.8z"/>
			<path d="M524.9,104h2.9l3.5,9.1h0l1.8-9.1h2.6l-2.7,12.7h-2.8l-3.5-8.9h0l-1.8,8.9h-2.6L524.9,104z"/>
			<path d="M538.9,104h2.9l3.5,9.1h0l1.8-9.1h2.6l-2.7,12.7h-2.8l-3.5-8.9h0l-1.8,8.9h-2.6L538.9,104z"/>
			<path d="M552.8,104h2.8l-2.7,12.7h-2.8L552.8,104z"/>
			<path d="M562.1,116.7h-3.2l-1.5-12.7h2.8l0.8,9.6h0l4.8-9.6h2.9L562.1,116.7z"/>
			<path d="M570.2,104h9.7l-0.5,2.4h-6.9l-0.6,2.7h6.4l-0.5,2.2h-6.4l-0.7,3.1h7l-0.5,2.4h-9.8L570.2,104z"/>
			<path d="M582.4,104h6.1c2.3,0,3.8,0.9,3.8,3.3c0,1.7-1.2,3.2-2.9,3.4v0c1.1,0.3,1.3,1.3,1.3,2.3c0,0.6-0.1,1.4-0.1,2.2
				c0,0.6,0,1.1,0.2,1.5H588c-0.1-0.3-0.1-0.6-0.1-0.9c0-0.9,0.1-1.7,0.1-2.6c0-1.2-0.7-1.5-1.8-1.5h-2.6l-1,5h-2.8L582.4,104z
				 M584,109.7h2.6c1.5,0,2.9-0.6,2.9-2c0-1.4-1-1.6-2.1-1.6h-2.7L584,109.7z"/>
			<path d="M596.1,112.5c-0.1,1.8,1.1,2.4,2.7,2.4c1.1,0,2.4-0.5,2.4-1.8c0-1.3-1.6-1.5-3.2-2c-1.6-0.5-3.2-1.2-3.2-3.4
				c0-2.8,2.6-4,5-4c2.6,0,4.8,1.2,4.8,4.1H602c0.1-1.4-1-1.9-2.3-1.9c-1.1,0-2.2,0.4-2.2,1.6c0,1.3,2.2,1.6,3,1.8
				c2,0.5,3.4,1.3,3.4,3.6c0,3.1-2.8,4.2-5.2,4.2c-3.5,0-5.3-1.5-5.3-4.5L596.1,112.5L596.1,112.5z"/>
			<path d="M611.1,104h2.9l2.1,12.7h-2.8l-0.4-2.8h-4.8l-1.6,2.8h-3L611.1,104z M609.3,111.8h3.4l-0.6-5.1h0L609.3,111.8z"/>
			<path d="M620.1,104h6.1c2.3,0,3.8,0.9,3.8,3.3c0,1.7-1.2,3.2-2.9,3.4v0c1.1,0.3,1.3,1.3,1.3,2.3c0,0.6-0.1,1.4-0.1,2.2
				c0,0.6,0,1.1,0.2,1.5h-2.7c-0.1-0.3-0.1-0.6-0.1-0.9c0-0.9,0.1-1.7,0.1-2.6c0-1.2-0.7-1.5-1.8-1.5h-2.6l-1,5h-2.8L620.1,104z
				 M621.7,109.7h2.6c1.5,0,2.9-0.6,2.9-2c0-1.4-1-1.6-2.1-1.6h-2.7L621.7,109.7z"/>
			<path d="M634.6,111.8l-3-7.8h2.9l1.9,5.4l4-5.4h3.3l-6.2,7.9l-1,4.8h-2.8L634.6,111.8z"/>
		</g>
	</g>
	<g>
		<polygon class="st2" points="466.2,117 464.2,117 484.8,0 486.8,0 		"/>
	</g>
</g>
</svg>
